{
  "type": "service_account",
  "project_id": "boreal-mode-222610",
  "private_key_id": "dc7f792375fd8271ce44006cf2f979ec6fbebeb6",
  "private_key": "-----BEGIN PRIVATE KEY-----\nMIIEvgIBADANBgkqhkiG9w0BAQEFAASCBKgwggSkAgEAAoIBAQDdHS3uVmGIjg1R\nTjU0nDFj9Cl9FvNZN9PtGr8HhppiDnjcgeoKu0SDChSjqJPwuCiAYEI01I79W3+m\njqRuuPzghDh2nSqceKP1krt72muSNkN/LcwYLUpYxvyuBPKdz8sTdezBo6ZGjZvM\nx02eB6PxjHrbOTtF3hxfg0RL83CxtGAAXjR1SpN1Uo9vTHKFsmsPbzJ6I9NJdcZw\ncmHGTfLK8E6+EfiDsdgf+Im502NG5ySrdj24FJKCB89YJvHZelsVour4kh8lqZL4\nHr1nHqwz1xc36+x7yMsuZ20veMXxAxroO41r3tXIihWgHfVmQ0sqRlzZ4BHn+rRE\no3tc8zA7AgMBAAECggEAOHOmsl7jb9W0mLl64/+srHQ90230myahuLtHYkh/SeGg\nAcw5UJwXFc2RD2eOvbqGvJ/Wx14tU4n0wTVRzeL0zO107PObWW+DjML1kt1k8WNh\nQCsVHGcTwC6tfFBPEPNoSYOl+popbYHh8RpBOsOAm77d7vJhq6jVXZ1J5oo0j2mg\nMKBhum3Ga99/laMi00LcSn4wvhUJC67H5RR64iepIy1AsneT1iJxY+f2LXfWJqmF\nQqaKku9I7IX8mMGCfYyS6wSlB3BzMFmxbrPec4zG9bKDFbxLoRDVzGsRu6iS76TP\nfv1l3o1nQYpbY/E2ufz+zTLSzz864lhjaJqck0WZQQKBgQD4OEC884UAW3CVBL96\nvmoe7G1woIB6RZImqaeedjAVct6lBYrkv88CxVQHDT8gqq0H5ACXfeSMM0XbEmYn\nNuFO32BmLz8hHVcnuCLOOscHQv69ity0sBCs5/h/vNmCZ3/IyYZ/M8NKbx9qEGft\n3nL1a7LVWqLMv2UtgMINN5Cs2QKBgQDkC20srWpARawxDO8gMe2quzwXta+5NfQX\n6hlIgVgD+qQd4gRhN+L2jL6sFbCpsbaYN5TIDGGo+v3KbkvpMDqrhaSfKZG+T5tH\n7nIYEFMTvH8bzIaZNJvsIhEygDwEzcFEuF30ZLvMuiY79VrsP1tuQIpZYbWt6LPL\nK/N3W8IpMwKBgQDaG/vuzIC7Dp4/o1tpzLXNFG0aAT7Dsiw5YuxR1oJr5nLzSIqC\ndHS/d4tdYutslezTOSq38zyHYWpplKJEpPmX57p6L9vmCjUSRr/2vTk0DU9wV/uV\nnfwZIwB9pgDukGl9km9niKF632gYN/BK2SPkuUz8ItdY2HlcYX6iRIgRCQKBgEr9\nUu5hLFJsVt5eYXgV0xDUt0MYtOtTyavfiGbmWbodPsCw5T3O8eyfhcfy7gAvd1sA\n1AUgxTCbML/Tm1TYTkK/FM5eDhYl+WsjBxPQsnEICEhs7koNGcUBwuP3dUUjIA3o\nDsViJruA7zfCTB7qCrfrs1MHJYZFwnHqRwqV+vgvAoGBAIt/Z0FGVX7mG3+g+o+e\ntx9aaARf9zLuCRnHIcfNFvwg21wpjVN9yljDjb7lVyhrlJNGiMCM4ap97Tzm//Eq\nJJu/ya32KrONCLB0tNtwmQXMlDsg6yFwk9XYFF56CqzJL72L9OtWID5NyW3bTLbm\nk+VY18SXjmhutZMOBABi7+KX\n-----END PRIVATE KEY-----\n",
  "client_email": "cesi-ril17-infal40-groupe-1@boreal-mode-222610.iam.gserviceaccount.com",
  "client_id": "112793260550216116293",
  "auth_uri": "https://accounts.google.com/o/oauth2/auth",
  "token_uri": "https://oauth2.googleapis.com/token",
  "auth_provider_x509_cert_url": "https://www.googleapis.com/oauth2/v1/certs",
  "client_x509_cert_url": "https://www.googleapis.com/robot/v1/metadata/x509/cesi-ril17-infal40-groupe-1%40boreal-mode-222610.iam.gserviceaccount.com"
}
